…
``` r
pups_df = janitor::clean_names(pups_df)
```

## `select`

`select` select columns.

``` r
select(litters_df, group, litter_number, gd0_weight)
```

    ## # A tibble: 49 × 3
    ##    group litter_number   gd0_weight
    ##    <chr> <chr>                <dbl>
    ##  1 Con7  #85                   19.7
    ##  2 Con7  #1/2/95/2             27  
    ##  3 Con7  #5/5/3/83/3-3         26  
    ##  4 Con7  #5/4/2/95/2           28.5
    ##  5 Con7  #4/2/95/3-3           NA  
    ##  6 Con7  #2/2/95/3-2           NA  
    ##  7 Con7  #1/5/3/83/3-3/2       NA  
    ##  8 Con8  #3/83/3-3             NA  
    ##  9 Con8  #2/95/3               NA  
    ## 10 Con8  #3/5/2/2/95           28.5
    ## # ℹ 39 more rows

``` r
select(litters_df, group, gd0_weight:gd_of_birth)
```

    ## # A tibble: 49 × 4
    ##    group gd0_weight gd18_weight gd_of_birth
    ##    <chr>      <dbl>       <dbl>       <dbl>
    ##  1 Con7        19.7        34.7          20
    ##  2 Con7        27          42            19
    ##  3 Con7        26          41.4          19
    ##  4 Con7        28.5        44.1          19
    ##  5 Con7        NA          NA            20
    ##  6 Con7        NA          NA            20
    ##  7 Con7        NA          NA            20
    ##  8 Con8        NA          NA            20
    ##  9 Con8        NA          NA            20
    ## 10 Con8        28.5        NA            20
    ## # ℹ 39 more rows

``` r
select(litters_df, group, starts_with("pups"))
```

    ## # A tibble: 49 × 4
    ##    group pups_born_alive pups_dead_birth pups_survive
    ##    <chr>           <dbl>           <dbl>        <dbl>
    ##  1 Con7                3               4            3
    ##  2 Con7                8               0            7
    ##  3 Con7                6               0            5
    ##  4 Con7                5               1            4
    ##  5 Con7                6               0            6
    ##  6 Con7                6               0            4
    ##  7 Con7                9               0            9
    ##  8 Con8                9               1            8
    ##  9 Con8                8               0            8
    ## 10 Con8                8               0            8
    ## # ℹ 39 more rows

``` r
select(litters_df, -litter_number)
```

    ## # A tibble: 49 × 7
    ##    group gd0_weight gd18_weight gd_of_birth pups_born_alive pups_dead_birth
    ##    <chr>      <dbl>       <dbl>       <dbl>           <dbl>           <dbl>
    ##  1 Con7        19.7        34.7          20               3               4
    ##  2 Con7        27          42            19               8               0
    ##  3 Con7        26          41.4          19               6               0
    ##  4 Con7        28.5        44.1          19               5               1
    ##  5 Con7        NA          NA            20               6               0
    ##  6 Con7        NA          NA            20               6               0
    ##  7 Con7        NA          NA            20               9               0
    ##  8 Con8        NA          NA            20               9               1
    ##  9 Con8        NA          NA            20               8               0
    ## 10 Con8        28.5        NA            20               8               0
    ## # ℹ 39 more rows
    ## # ℹ 1 more variable: pups_survive <dbl>

``` r
select(litters_df, -starts_with("gd"))
```

    ## # A tibble: 49 × 5
    ##    group litter_number   pups_born_alive pups_dead_birth pups_survive
    ##    <chr> <chr>                     <dbl>           <dbl>        <dbl>
    ##  1 Con7  #85                           3               4            3
    ##  2 Con7  #1/2/95/2                     8               0            7
    ##  3 Con7  #5/5/3/83/3-3                 6               0            5
    ##  4 Con7  #5/4/2/95/2                   5               1            4
    ##  5 Con7  #4/2/95/3-3                   6               0            6
    ##  6 Con7  #2/2/95/3-2                   6               0            4
    ##  7 Con7  #1/5/3/83/3-3/2               9               0            9
    ##  8 Con8  #3/83/3-3                     9               1            8
    ##  9 Con8  #2/95/3                       8               0            8
    ## 10 Con8  #3/5/2/2/95                   8               0            8
    ## # ℹ 39 more rows

``` r
select(litters_df, group, litter_ID = litter_number)
```

    ## # A tibble: 49 × 2
    ##    group litter_ID      
    ##    <chr> <chr>          
    ##  1 Con7  #85            
    ##  2 Con7  #1/2/95/2      
    ##  3 Con7  #5/5/3/83/3-3  
    ##  4 Con7  #5/4/2/95/2    
    ##  5 Con7  #4/2/95/3-3    
    ##  6 Con7  #2/2/95/3-2    
    ##  7 Con7  #1/5/3/83/3-3/2
    ##  8 Con8  #3/83/3-3      
    ##  9 Con8  #2/95/3        
    ## 10 Con8  #3/5/2/2/95    
    ## # ℹ 39 more rows

``` r
select(litters_df, group, litter_ID = litter_number, everything())
```

    ## # A tibble: 49 × 8
    ##    group litter_ID       gd0_weight gd18_weight gd_of_birth pups_born_alive
    ##    <chr> <chr>                <dbl>       <dbl>       <dbl>           <dbl>
    ##  1 Con7  #85                   19.7        34.7          20               3
    ##  2 Con7  #1/2/95/2             27          42            19               8
    ##  3 Con7  #5/5/3/83/3-3         26          41.4          19               6
    ##  4 Con7  #5/4/2/95/2           28.5        44.1          19               5
    ##  5 Con7  #4/2/95/3-3           NA          NA            20               6
    ##  6 Con7  #2/2/95/3-2           NA          NA            20               6
    ##  7 Con7  #1/5/3/83/3-3/2       NA          NA            20               9
    ##  8 Con8  #3/83/3-3             NA          NA            20               9
    ##  9 Con8  #2/95/3               NA          NA            20               8
    ## 10 Con8  #3/5/2/2/95           28.5        NA            20               8
    ## # ℹ 39 more rows
    ## # ℹ 2 more variables: pups_dead_birth <dbl>, pups_survive <dbl>

``` r
select(litters_df, gd0_weight, everything())
```

    ## # A tibble: 49 × 8
    ##    gd0_weight group litter_number   gd18_weight gd_of_birth pups_born_alive
    ##         <dbl> <chr> <chr>                 <dbl>       <dbl>           <dbl>
    ##  1       19.7 Con7  #85                    34.7          20               3
    ##  2       27   Con7  #1/2/95/2              42            19               8
    ##  3       26   Con7  #5/5/3/83/3-3          41.4          19               6
    ##  4       28.5 Con7  #5/4/2/95/2            44.1          19               5
    ##  5       NA   Con7  #4/2/95/3-3            NA            20               6
    ##  6       NA   Con7  #2/2/95/3-2            NA            20               6
    ##  7       NA   Con7  #1/5/3/83/3-3/2        NA            20               9
    ##  8       NA   Con8  #3/83/3-3              NA            20               9
    ##  9       NA   Con8  #2/95/3                NA            20               8
    ## 10       28.5 Con8  #3/5/2/2/95            NA            20               8
    ## # ℹ 39 more rows
    ## # ℹ 2 more variables: pups_dead_birth <dbl>, pups_survive <dbl>

# `rename` and `relocate`

``` r
rename(litters_df, litter_id = litter_number)
```

    ## # A tibble: 49 × 8
    ##    group litter_id       gd0_weight gd18_weight gd_of_birth pups_born_alive
    ##    <chr> <chr>                <dbl>       <dbl>       <dbl>           <dbl>
    ##  1 Con7  #85                   19.7        34.7          20               3
    ##  2 Con7  #1/2/95/2             27          42            19               8
    ##  3 Con7  #5/5/3/83/3-3         26          41.4          19               6
    ##  4 Con7  #5/4/2/95/2           28.5        44.1          19               5
    ##  5 Con7  #4/2/95/3-3           NA          NA            20               6
    ##  6 Con7  #2/2/95/3-2           NA          NA            20               6
    ##  7 Con7  #1/5/3/83/3-3/2       NA          NA            20               9
    ##  8 Con8  #3/83/3-3             NA          NA            20               9
    ##  9 Con8  #2/95/3               NA          NA            20               8
    ## 10 Con8  #3/5/2/2/95           28.5        NA            20               8
    ## # ℹ 39 more rows
    ## # ℹ 2 more variables: pups_dead_birth <dbl>, pups_survive <dbl>

``` r
relocate(litters_df, litter_number)
```

    ## # A tibble: 49 × 8
    ##    litter_number   group gd0_weight gd18_weight gd_of_birth pups_born_alive
    ##    <chr>           <chr>      <dbl>       <dbl>       <dbl>           <dbl>
    ##  1 #85             Con7        19.7        34.7          20               3
    ##  2 #1/2/95/2       Con7        27          42            19               8
    ##  3 #5/5/3/83/3-3   Con7        26          41.4          19               6
    ##  4 #5/4/2/95/2     Con7        28.5        44.1          19               5
    ##  5 #4/2/95/3-3     Con7        NA          NA            20               6
    ##  6 #2/2/95/3-2     Con7        NA          NA            20               6
    ##  7 #1/5/3/83/3-3/2 Con7        NA          NA            20               9
    ##  8 #3/83/3-3       Con8        NA          NA            20               9
    ##  9 #2/95/3         Con8        NA          NA            20               8
    ## 10 #3/5/2/2/95     Con8        28.5        NA            20               8
    ## # ℹ 39 more rows
    ## # ℹ 2 more variables: pups_dead_birth <dbl>, pups_survive <dbl>
…
``` r
filter(litters_df, group != "Mod8")
```

    ## # A tibble: 42 × 8
    ##    group litter_number   gd0_weight gd18_weight gd_of_birth pups_born_alive
    ##    <chr> <chr>                <dbl>       <dbl>       <dbl>           <dbl>
    ##  1 Con7  #85                   19.7        34.7          20               3
    ##  2 Con7  #1/2/95/2             27          42            19               8
    ##  3 Con7  #5/5/3/83/3-3         26          41.4          19               6
    ##  4 Con7  #5/4/2/95/2           28.5        44.1          19               5
    ##  5 Con7  #4/2/95/3-3           NA          NA            20               6
    ##  6 Con7  #2/2/95/3-2           NA          NA            20               6
    ##  7 Con7  #1/5/3/83/3-3/2       NA          NA            20               9
    ##  8 Con8  #3/83/3-3             NA          NA            20               9
    ##  9 Con8  #2/95/3               NA          NA            20               8
    ## 10 Con8  #3/5/2/2/95           28.5        NA            20               8
    ## # ℹ 32 more rows
    ## # ℹ 2 more variables: pups_dead_birth <dbl>, pups_survive <dbl>

``` r
filter(litters_df, !(group == "Con7"))
```

    ## # A tibble: 42 × 8
    ##    group litter_number   gd0_weight gd18_weight gd_of_birth pups_born_alive
    ##    <chr> <chr>                <dbl>       <dbl>       <dbl>           <dbl>
    ##  1 Con8  #3/83/3-3             NA          NA            20               9
    ##  2 Con8  #2/95/3               NA          NA            20               8
    ##  3 Con8  #3/5/2/2/95           28.5        NA            20               8
    ##  4 Con8  #5/4/3/83/3           28          NA            19               9
    ##  5 Con8  #1/6/2/2/95-2         NA          NA            20               7
    ##  6 Con8  #3/5/3/83/3-3-2       NA          NA            20               8
    ##  7 Con8  #2/2/95/2             NA          NA            19               5
    ##  8 Con8  #3/6/2/2/95-3         NA          NA            20               7
    ##  9 Mod7  #59                   17          33.4          19               8
    ## 10 Mod7  #103                  21.4        42.1          19               9
    ## # ℹ 32 more rows
    ## # ℹ 2 more variables: pups_dead_birth <dbl>, pups_survive <dbl>

``` r
filter(litters_df, gd0_weight > 20)
```

    ## # A tibble: 30 × 8
    ##    group litter_number gd0_weight gd18_weight gd_of_birth pups_born_alive
    ##    <chr> <chr>              <dbl>       <dbl>       <dbl>           <dbl>
    ##  1 Con7  #1/2/95/2           27          42            19               8
    ##  2 Con7  #5/5/3/83/3-3       26          41.4          19               6
    ##  3 Con7  #5/4/2/95/2         28.5        44.1          19               5
    ##  4 Con8  #3/5/2/2/95         28.5        NA            20               8
    ##  5 Con8  #5/4/3/83/3         28          NA            19               9
    ##  6 Mod7  #103                21.4        42.1          19               9
    ##  7 Mod7  #3/82/3-2           28          45.9          20               5
    ##  8 Mod7  #4/2/95/2           23.5        NA            19               9
    ##  9 Mod7  #5/3/83/5-2         22.6        37            19               5
    ## 10 Mod7  #106                21.7        37.8          20               5
    ## # ℹ 20 more rows
    ## # ℹ 2 more variables: pups_dead_birth <dbl>, pups_survive <dbl>
…
## `mutate`

`mutate` adds or changes variables.

``` r
mutate(litters_df, wt_gain = gd18_weight - gd0_weight)
```

    ## # A tibble: 49 × 9
    ##    group litter_number   gd0_weight gd18_weight gd_of_birth pups_born_alive
    ##    <chr> <chr>                <dbl>       <dbl>       <dbl>           <dbl>
    ##  1 Con7  #85                   19.7        34.7          20               3
    ##  2 Con7  #1/2/95/2             27          42            19               8
    ##  3 Con7  #5/5/3/83/3-3         26          41.4          19               6
    ##  4 Con7  #5/4/2/95/2           28.5        44.1          19               5
    ##  5 Con7  #4/2/95/3-3           NA          NA            20               6
    ##  6 Con7  #2/2/95/3-2           NA          NA            20               6
    ##  7 Con7  #1/5/3/83/3-3/2       NA          NA            20               9
    ##  8 Con8  #3/83/3-3             NA          NA            20               9
    ##  9 Con8  #2/95/3               NA          NA            20               8
    ## 10 Con8  #3/5/2/2/95           28.5        NA            20               8
    ## # ℹ 39 more rows
    ## # ℹ 3 more variables: pups_dead_birth <dbl>, pups_survive <dbl>, wt_gain <dbl>

``` r
mutate(litters_df, group=str_to_lower(group))
```

    ## # A tibble: 49 × 8
    ##    group litter_number   gd0_weight gd18_weight gd_of_birth pups_born_alive
    ##    <chr> <chr>                <dbl>       <dbl>       <dbl>           <dbl>
    ##  1 con7  #85                   19.7        34.7          20               3
    ##  2 con7  #1/2/95/2             27          42            19               8
    ##  3 con7  #5/5/3/83/3-3         26          41.4          19               6
    ##  4 con7  #5/4/2/95/2           28.5        44.1          19               5
    ##  5 con7  #4/2/95/3-3           NA          NA            20               6
    ##  6 con7  #2/2/95/3-2           NA          NA            20               6
    ##  7 con7  #1/5/3/83/3-3/2       NA          NA            20               9
    ##  8 con8  #3/83/3-3             NA          NA            20               9
    ##  9 con8  #2/95/3               NA          NA            20               8
    ## 10 con8  #3/5/2/2/95           28.5        NA            20               8
    ## # ℹ 39 more rows
    ## # ℹ 2 more variables: pups_dead_birth <dbl>, pups_survive <dbl>

``` r
mutate(
  litters_df,
  wt_gain = gd18_weight - gd0_weight,
  group=str_to_lower(group)
  )
```

    ## # A tibble: 49 × 9
    ##    group litter_number   gd0_weight gd18_weight gd_of_birth pups_born_alive
    ##    <chr> <chr>                <dbl>       <dbl>       <dbl>           <dbl>
    ##  1 con7  #85                   19.7        34.7          20               3
    ##  2 con7  #1/2/95/2             27          42            19               8
    ##  3 con7  #5/5/3/83/3-3         26          41.4          19               6
    ##  4 con7  #5/4/2/95/2           28.5        44.1          19               5
    ##  5 con7  #4/2/95/3-3           NA          NA            20               6
    ##  6 con7  #2/2/95/3-2           NA          NA            20               6
    ##  7 con7  #1/5/3/83/3-3/2       NA          NA            20               9
    ##  8 con8  #3/83/3-3             NA          NA            20               9
    ##  9 con8  #2/95/3               NA          NA            20               8
    ## 10 con8  #3/5/2/2/95           28.5        NA            20               8
    ## # ℹ 39 more rows
    ## # ℹ 3 more variables: pups_dead_birth <dbl>, pups_survive <dbl>, wt_gain <dbl>

## Missing rows

``` r
drop_na(litters_df)
```

    ## # A tibble: 31 × 8
    ##    group litter_number gd0_weight gd18_weight gd_of_birth pups_born_alive
    ##    <chr> <chr>              <dbl>       <dbl>       <dbl>           <dbl>
    ##  1 Con7  #85                 19.7        34.7          20               3
    ##  2 Con7  #1/2/95/2           27          42            19               8
    ##  3 Con7  #5/5/3/83/3-3       26          41.4          19               6
    ##  4 Con7  #5/4/2/95/2         28.5        44.1          19               5
    ##  5 Mod7  #59                 17          33.4          19               8
    ##  6 Mod7  #103                21.4        42.1          19               9
    ##  7 Mod7  #3/82/3-2           28          45.9          20               5
    ##  8 Mod7  #5/3/83/5-2         22.6        37            19               5
    ##  9 Mod7  #106                21.7        37.8          20               5
    ## 10 Mod7  #94/2               24.4        42.9          19               7
    ## # ℹ 21 more rows
    ## # ℹ 2 more variables: pups_dead_birth <dbl>, pups_survive <dbl>

``` r
drop_na(litters_df, gd0_weight)
```

    ## # A tibble: 34 × 8
    ##    group litter_number gd0_weight gd18_weight gd_of_birth pups_born_alive
    ##    <chr> <chr>              <dbl>       <dbl>       <dbl>           <dbl>
    ##  1 Con7  #85                 19.7        34.7          20               3
    ##  2 Con7  #1/2/95/2           27          42            19               8
    ##  3 Con7  #5/5/3/83/3-3       26          41.4          19               6
    ##  4 Con7  #5/4/2/95/2         28.5        44.1          19               5
    ##  5 Con8  #3/5/2/2/95         28.5        NA            20               8
    ##  6 Con8  #5/4/3/83/3         28          NA            19               9
    ##  7 Mod7  #59                 17          33.4          19               8
    ##  8 Mod7  #103                21.4        42.1          19               9
    ##  9 Mod7  #3/82/3-2           28          45.9          20               5
    ## 10 Mod7  #4/2/95/2           23.5        NA            19               9
    ## # ℹ 24 more rows
    ## # ℹ 2 more variables: pups_dead_birth <dbl>, pups_survive <dbl>
…
